<?xml version="1.0" encoding="UTF-8" standalone="no"?>
<svg width="26px" height="26px" viewBox="0 0 26 26" version="1.1" xmlns="http://www.w3.org/2000/svg" xmlns:xlink="http://www.w3.org/1999/xlink">
    <!-- Generator: Sketch 3.6.1 (26313) - http://www.bohemiancoding.com/sketch -->
    <title>Oval 1 + Line + Line Copy 3</title>
    <desc>Created with Sketch.</desc>
    <defs></defs>
    <g id="Page-2" stroke="none" stroke-width="1" fill="none" fill-rule="evenodd">
        <g id="Letter-Copy-2" transform="translate(-460.000000, -134.000000)" stroke="#62B2B1" stroke-width="2">
            <g id="Oval-1-+-Line-+-Line-Copy-3" transform="translate(473.000000, 147.000000) rotate(-180.000000) translate(-473.000000, -147.000000) translate(461.000000, 135.000000)">
                <circle id="Oval-1" cx="12" cy="12" r="12"></circle>
                <path d="M11.5,8.5 L6.5,14.5" id="Line" stroke-linecap="square"></path>
                <path d="M17.5,8.5 L12.5,14.5" id="Line-Copy-3" stroke-linecap="square" transform="translate(15.000000, 11.500000) scale(-1, 1) translate(-15.000000, -11.500000) "></path>
            </g>
        </g>
    </g>
</svg>